"kraj","pocet","max","zeny","vek","histovek","titul","novacci"
"Jihočeský kraj",1066,1380,"0.268292682926829","46.2082551594747","65, 45, 67, 67, 60, 43, 47, 47, 48, 56, 47, 44, 43, 50, 36, 53, 56, 30, 48, 64, 34, 54, 36, 43, 67, 43, 43, 40, 49, 46, 45, 40, 48, 38, 57, 51, 39, 59, 51, 44, 70, 39, 62, 58, 67, 63, 40, 50, 70, 61, 33, 53, 54, 39, 64, 60, 32, 46, 37, 39, 45, 45, 64, 61, 46, 50, 39, 42, 63, 64, 46, 35, 60, 62, 34, 64, 51, 40, 41, 42, 64, 57, 58, 41, 66, 53, 46, 55, 40, 44, 60, 59, 43, 44, 54, 60, 38, 51, 68, 57, 56, 61, 51, 61, 55, 51, 49, 32, 53, 37, 51, 52, 48, 31, 46, 59, 40, 44, 52, 41, 45, 49, 40, 45, 37, 
51, 54, 73, 42, 53, 38, 39, 66, 54, 44, 53, 65, 59, 45, 59, 50, 44, 64, 59, 42, 61, 42, 41, 37, 32, 39, 63, 46, 56, 55, 48, 34, 58, 69, 36, 53, 54, 44, 61, 23, 37, 39, 54, 43, 50, 47, 54, 48, 50, 50, 40, 62, 44, 58, 53, 54, 42, 66, 29, 59, 56, 63, 56, 49, 48, 47, 46, 52, 28, 49, 54, 46, 49, 51, 36, 46, 27, 52, 29, 40, 55, 42, 48, 66, 21, 53, 70, 48, 41, 32, 65, 36, 35, 67, 41, 50, 61, 40, 59, 56, 43, 47, 63, 63, 69, 60, 33, 39, 55, 47, 44, 37, 56, 42, 38, 58, 44, 39, 32, 47, 53, 45, 56, 32, 34, 69, 
43, 57, 43, 34, 57, 66, 38, 54, 61, 39, 54, 28, 49, 46, 40, 53, 35, 30, 66, 33, 67, 27, 52, 21, 43, 64, 45, 47, 38, 53, 38, 63, 30, 31, 54, 44, 48, 35, 61, 44, 36, 20, 42, 40, 32, 44, 40, 69, 34, 57, 58, 22, 53, 40, 51, 38, 28, 53, 54, 37, 53, 54, 57, 46, 40, 56, 46, 49, 30, 32, 37, 40, 58, 24, 48, 60, 64, 33, 44, 48, 57, 43, 24, 53, 43, 56, 61, 28, 51, 22, 60, 41, 59, 20, 23, 22, 70, 18, 57, 22, 65, 61, 35, 63, 45, 59, 39, 64, 50, 42, 42, 30, 35, 64, 61, 62, 56, 56, 38, 25, 69, 69, 55, 69, 57, 64, 
58, 50, 61, 68, 55, 62, 38, 66, 42, 66, 44, 36, 71, 37, 66, 45, 44, 61, 54, 60, 34, 62, 44, 39, 36, 60, 64, 57, 41, 71, 51, 38, 34, 73, 53, 50, 63, 46, 44, 52, 49, 57, 67, 47, 45, 59, 49, 42, 38, 47, 63, 64, 39, 52, 40, 50, 46, 51, 46, 60, 33, 59, 32, 51, 48, 39, 56, 59, 25, 54, 45, 33, 65, 50, 54, 26, 67, 32, 33, 59, 52, 32, 29, 60, 60, 40, 58, 78, 65, 43, 32, 64, 57, 59, 28, 64, 59, 61, 57, 59, 53, 53, 60, 53, 58, 52, 41, 64, 67, 30, 37, 67, 58, 38, 41, 58, 55, 66, 37, 69, 52, 55, 61, 24, 47, 50, 
61, 41, 28, 31, 55, 67, 49, 32, 65, 59, 57, 56, 50, 53, 40, 61, 32, 58, 65, 45, 71, 54, 48, 25, 37, 55, 52, 47, 29, 23, 54, 47, 44, 44, 48, 61, 41, 53, 40, 52, 25, 47, 50, 57, 43, 50, 56, 58, 49, 37, 60, 61, 30, 54, 55, 75, 60, 41, 47, 39, 62, 31, 37, 43, 40, 34, 49, 48, 28, 41, 62, 35, 37, 33, 47, 29, 64, 33, 53, 22, 35, 33, 67, 28, 58, 40, 61, 25, 39, 31, 41, 46, 53, 19, 42, 58, 38, 43, 39, 40, 35, 67, 35, 46, 39, 23, 34, 71, 55, 30, 31, 45, 27, 67, 28, 80, 70, 62, 35, 37, 40, 34, 37, 47, 33, 63, 
26, 40, 36, 51, 54, 52, 55, 64, 48, 31, 40, 25, 37, 38, 41, 42, 38, 58, 35, 53, 18, 22, 31, 50, 60, 37, 26, 35, 52, 32, 53, 33, 40, 35, 37, 41, 27, 45, 35, 24, 36, 36, 35, 43, 33, 29, 42, 45, 39, 70, 37, 72, 51, 36, 46, 55, 56, 50, 51, 65, 26, 56, 56, 67, 38, 73, 46, 57, 67, 29, 49, 23, 30, 53, 32, 27, 47, 48, 65, 33, 62, 24, 44, 53, 52, 54, 58, 53, 42, 60, 33, 20, 42, 65, 63, 54, 49, 60, 37, 46, 64, 62, 55, 44, 65, 30, 45, 54, 61, 37, 28, 61, 55, 50, 35, 63, 50, 41, 34, 26, 42, 60, 42, 53, 64, 38, 
35, 68, 38, 54, 46, 55, 19, 28, 57, 46, 65, 34, 62, 55, 24, 58, 45, 63, 67, 69, 47, 43, 37, 35, 58, 34, 40, 39, 49, 28, 54, 20, 40, 66, 44, 52, 61, 33, 65, 67, 54, 44, 55, 43, 39, 37, 44, 62, 26, 62, 52, 39, 35, 50, 24, 42, 58, 33, 51, 36, 35, 22, 32, 44, 46, 20, 31, 36, 48, 37, 44, 41, 34, 25, 27, 48, 41, 39, 60, 58, 38, 47, 22, 45, 39, 39, 49, 35, 27, 29, 51, 28, 57, 31, 41, 38, 29, 31, 29, 43, 31, 45, 58, 58, 59, 51, 24, 38, 43, 37, 38, 53, 50, 49, 37, 45, 37, 62, 53, 40, 51, 28, 52, 42, 44, 41, 
52, 46, 32, 63, 70, 42, 43, 48, 35, 30, 84, 43, 46, 43, 67, 66, 42, 46, 64, 43, 38, 58, 28, 39, 26, 60, 32, 58, 29, 42, 45, 53, 19, 59, 45, 68, 30, 29, 42, 61, 28, 46, 32, 47, 61, 30, 49, 68, 48, 43, 36, 49, 31, 57, 58, 46, 47, 38, 48, 62, 47, 58, 48, 59, 49, 62, 37, 36, 48, 69, 21, 49, 46, 38, 44, 56, 21, 46, 19, 63, 59, 45, 26, 40, 31, 41, 23, 39, 32, 40, 61, 24, 28, 32, 67, 38, 18, 51, 32, 25, 39, 35, 21, 49, 43, 48, 25, 33, 44, 48, 35, 27, 30, 20, 43, 27, 39, 30, 48, 32, 67, 34, 28, 32, 33, 39, 
30, 51, 25, 54, 24, 30, 21, 25, 77, 55, 22, 42, 40, 42, 69, 30, 35, 21, 39, 30, 23, 24, 18, 27, 51, 59, 53, 48, 38, 49, 60, 35, 60, 40, 39, 45, 55, 30, 38, 45, 60, 39, 39, 76, 50, 36, 56, 40, 46, 19, 39, 39, 53, 20, 42, 21, 24, 37, 22","0.431519699812383","0.762664165103189"
"Jihomoravský kraj",1158,1470,"0.303108808290155","46.6096718480138","48, 69, 56, 39, 56, 55, 42, 25, 29, 58, 53, 47, 42, 50, 46, 57, 46, 37, 51, 52, 56, 62, 42, 49, 52, 58, 58, 46, 61, 66, 50, 42, 45, 19, 66, 22, 39, 62, 61, 57, 53, 54, 25, 42, 56, 49, 37, 45, 41, 50, 53, 57, 65, 43, 48, 43, 43, 38, 51, 58, 35, 32, 47, 38, 41, 23, 26, 40, 47, 53, 39, 46, 40, 40, 31, 36, 42, 49, 36, 54, 34, 54, 37, 53, 34, 33, 37, 40, 67, 37, 62, 65, 54, 55, 36, 56, 49, 36, 32, 45, 40, 38, 56, 33, 60, 52, 46, 52, 43, 57, 41, 39, 38, 38, 53, 55, 59, 67, 30, 49, 50, 55, 53, 42, 51, 
57, 38, 40, 29, 61, 46, 41, 58, 51, 51, 56, 49, 36, 51, 42, 45, 36, 47, 38, 32, 43, 36, 47, 53, 42, 45, 55, 69, 53, 44, 36, 24, 35, 45, 34, 41, 46, 53, 41, 49, 45, 35, 22, 55, 29, 43, 56, 60, 46, 31, 64, 36, 63, 60, 41, 23, 44, 66, 67, 42, 36, 26, 36, 55, 33, 24, 24, 54, 65, 26, 67, 49, 72, 40, 65, 76, 41, 86, 38, 52, 38, 25, 51, 44, 33, 67, 33, 51, 54, 26, 53, 27, 24, 54, 23, 41, 24, 44, 36, 48, 31, 40, 25, 43, 35, 29, 33, 33, 33, 54, 32, 43, 39, 55, 35, 43, 31, 30, 30, 30, 38, 46, 39, 27, 61, 56, 
47, 39, 61, 34, 26, 32, 25, 34, 37, 31, 28, 38, 37, 31, 43, 33, 26, 19, 42, 34, 47, 44, 27, 40, 63, 28, 34, 43, 37, 55, 47, 55, 56, 54, 58, 50, 57, 40, 62, 46, 53, 40, 54, 57, 56, 50, 52, 47, 42, 54, 47, 57, 60, 49, 63, 58, 41, 52, 51, 42, 54, 54, 55, 56, 44, 56, 34, 54, 46, 44, 66, 53, 39, 54, 59, 59, 46, 45, 45, 50, 43, 65, 72, 65, 49, 38, 53, 61, 56, 49, 53, 46, 57, 37, 40, 43, 41, 60, 45, 56, 56, 48, 58, 32, 32, 31, 34, 44, 54, 52, 62, 53, 46, 58, 54, 42, 53, 31, 42, 46, 53, 57, 35, 46, 55, 40, 
49, 45, 39, 60, 55, 43, 40, 45, 35, 52, 48, 54, 46, 41, 59, 35, 54, 50, 42, 48, 51, 48, 59, 40, 52, 50, 45, 32, 36, 36, 48, 58, 53, 58, 46, 54, 38, 45, 32, 61, 64, 50, 58, 46, 46, 67, 61, 57, 56, 55, 54, 62, 28, 73, 68, 33, 58, 58, 47, 84, 56, 71, 58, 61, 50, 50, 28, 65, 68, 57, 57, 57, 34, 42, 53, 54, 57, 46, 31, 38, 38, 45, 52, 36, 52, 32, 40, 61, 58, 36, 43, 63, 47, 56, 30, 57, 55, 54, 37, 60, 41, 52, 49, 72, 32, 49, 55, 33, 28, 50, 34, 56, 47, 48, 38, 63, 48, 45, 48, 66, 50, 48, 42, 56, 43, 45, 
39, 32, 52, 49, 40, 34, 42, 55, 56, 42, 50, 45, 55, 41, 67, 55, 67, 61, 37, 65, 50, 59, 23, 26, 60, 74, 48, 38, 58, 48, 41, 34, 71, 53, 44, 60, 64, 32, 53, 33, 61, 44, 33, 38, 58, 58, 50, 41, 64, 70, 36, 54, 53, 42, 62, 62, 63, 31, 30, 41, 50, 61, 57, 55, 63, 57, 68, 62, 63, 55, 36, 64, 46, 46, 43, 64, 30, 28, 65, 67, 59, 31, 40, 59, 52, 25, 27, 52, 49, 66, 56, 26, 20, 57, 36, 59, 45, 29, 23, 40, 25, 72, 22, 26, 38, 55, 62, 68, 57, 51, 48, 35, 66, 45, 49, 57, 73, 72, 66, 19, 75, 71, 32, 61, 47, 71, 
39, 23, 62, 61, 59, 41, 40, 34, 42, 26, 36, 20, 33, 37, 44, 71, 18, 74, 66, 40, 30, 25, 74, 51, 34, 52, 82, 34, 69, 24, 58, 26, 64, 45, 28, 61, 68, 68, 36, 20, 48, 34, 55, 68, 21, 36, 34, 68, 45, 44, 66, 59, 54, 73, 67, 49, 62, 69, 45, 63, 63, 80, 62, 58, 31, 70, 79, 69, 63, 58, 39, 52, 41, 54, 37, 58, 48, 78, 68, 58, 46, 37, 36, 55, 36, 76, 79, 66, 60, 66, 69, 73, 62, 68, 52, 48, 45, 74, 47, 50, 28, 42, 27, 72, 42, 27, 38, 49, 47, 29, 63, 41, 29, 73, 64, 48, 52, 37, 26, 50, 25, 51, 40, 33, 54, 58, 
50, 55, 21, 47, 32, 24, 39, 43, 42, 24, 42, 29, 48, 33, 56, 42, 42, 37, 32, 41, 42, 35, 47, 40, 26, 59, 20, 30, 57, 30, 44, 34, 37, 32, 65, 48, 41, 33, 38, 43, 29, 42, 71, 56, 45, 40, 47, 25, 42, 20, 53, 39, 41, 28, 48, 25, 30, 28, 60, 70, 30, 49, 61, 60, 48, 68, 53, 26, 30, 41, 35, 55, 55, 44, 63, 48, 48, 61, 54, 40, 66, 52, 43, 51, 33, 49, 60, 43, 65, 35, 46, 57, 61, 26, 62, 54, 40, 64, 47, 45, 34, 57, 70, 55, 63, 66, 54, 48, 36, 50, 45, 63, 59, 53, 70, 24, 60, 35, 56, 68, 52, 47, 46, 42, 37, 61, 
40, 68, 72, 65, 49, 60, 69, 41, 63, 68, 56, 29, 71, 61, 66, 40, 77, 69, 32, 33, 53, 60, 31, 27, 54, 38, 44, 46, 37, 45, 65, 33, 29, 40, 33, 36, 58, 35, 52, 56, 45, 38, 60, 29, 30, 35, 42, 51, 36, 38, 29, 59, 48, 44, 30, 35, 40, 57, 37, 30, 26, 42, 40, 31, 40, 53, 36, 26, 27, 38, 26, 59, 35, 30, 39, 34, 32, 52, 60, 53, 54, 33, 35, 32, 31, 52, 54, 34, 28, 32, 33, 26, 38, 69, 32, 32, 36, 22, 33, 33, 28, 67, 57, 67, 46, 44, 30, 20, 32, 28, 21, 23, 28, 30, 24, 26, 29, 48, 27, 32, 20, 21, 49, 39, 25, 51, 
39, 47, 36, 60, 29, 64, 37, 50, 56, 46, 62, 46, 38, 57, 63, 62, 46, 70, 70, 51, 37, 36, 60, 44, 46, 49, 57, 40, 46, 26, 46, 44, 48, 57, 42, 54, 45, 37, 63, 48, 38, 69, 65, 40, 47, 48, 66, 46, 57, 58, 22, 36, 44, 71, 38, 50, 56, 32, 25, 60, 47, 70, 44, 57, 57, 30, 63, 21, 58, 45, 62, 42, 73, 35, 36, 32, 35, 34, 40, 46, 55, 30, 37, 59, 55, 40, 47, 56, 30, 38, 39, 44, 56, 57, 23, 35, 56, 29, 53, 59, 37, 51, 43, 67, 61, 41, 51, 33, 45, 47, 35, 43, 47, 61, 49, 49, 62, 22, 50, 43, 37, 25, 60, 60, 40, 61, 
25, 21, 32, 36, 57, 44, 40, 30, 47, 60, 47, 36, 23, 44, 41, 28, 63, 39, 36, 50, 41, 49, 40, 40, 31","0.46027633851468","0.803108808290155"
"Karlovarský kraj",868,1050,"0.309907834101383","46.1071428571429","41, 52, 42, 36, 40, 59, 52, 59, 46, 55, 49, 61, 45, 60, 51, 46, 43, 50, 58, 53, 45, 53, 65, 52, 35, 40, 49, 53, 33, 38, 59, 49, 38, 67, 67, 70, 63, 54, 46, 37, 34, 71, 41, 39, 39, 39, 53, 39, 39, 48, 50, 33, 41, 54, 44, 31, 51, 43, 60, 44, 67, 25, 49, 45, 51, 42, 57, 62, 41, 53, 55, 47, 62, 39, 49, 44, 68, 46, 46, 40, 52, 35, 37, 57, 35, 43, 44, 51, 53, 52, 45, 46, 48, 48, 52, 63, 50, 45, 49, 33, 50, 55, 50, 40, 52, 36, 49, 60, 73, 50, 47, 41, 47, 41, 48, 69, 30, 40, 40, 65, 47, 43, 63, 66, 45, 
32, 36, 28, 39, 28, 66, 35, 25, 53, 31, 43, 31, 39, 35, 52, 34, 58, 49, 57, 53, 43, 62, 56, 48, 65, 55, 36, 44, 53, 35, 52, 50, 37, 50, 54, 45, 34, 52, 62, 35, 53, 57, 59, 57, 63, 47, 56, 60, 65, 66, 70, 53, 47, 51, 61, 26, 54, 54, 52, 56, 65, 36, 63, 39, 68, 47, 45, 40, 41, 66, 29, 65, 36, 44, 63, 46, 43, 35, 55, 38, 35, 55, 44, 63, 67, 59, 36, 58, 46, 59, 64, 71, 52, 36, 45, 60, 28, 64, 47, 35, 62, 53, 87, 32, 28, 53, 51, 42, 29, 55, 74, 43, 47, 57, 38, 62, 59, 48, 52, 58, 42, 47, 63, 53, 43, 53, 
37, 52, 61, 43, 44, 49, 64, 41, 48, 45, 62, 68, 43, 50, 63, 52, 35, 45, 51, 37, 51, 47, 48, 44, 47, 43, 24, 50, 62, 50, 43, 35, 52, 30, 39, 44, 35, 40, 27, 34, 28, 65, 28, 35, 73, 39, 26, 36, 59, 29, 33, 40, 34, 27, 26, 32, 40, 56, 26, 27, 26, 27, 59, 22, 36, 37, 23, 55, 26, 46, 62, 51, 20, 40, 31, 26, 30, 37, 75, 71, 76, 72, 45, 24, 48, 52, 58, 63, 67, 61, 42, 67, 56, 53, 63, 67, 64, 42, 62, 68, 50, 58, 64, 31, 54, 63, 49, 47, 47, 65, 48, 73, 26, 55, 48, 53, 33, 63, 49, 54, 68, 62, 58, 62, 34, 44, 
43, 56, 60, 22, 55, 23, 44, 34, 41, 30, 24, 20, 37, 20, 29, 28, 35, 24, 38, 21, 19, 30, 23, 26, 33, 41, 19, 24, 28, 33, 25, 43, 21, 62, 46, 29, 34, 28, 27, 62, 21, 49, 42, 69, 30, 62, 50, 42, 23, 21, 25, 23, 24, 20, 28, 37, 58, 38, 44, 51, 53, 43, 53, 52, 40, 39, 60, 69, 25, 29, 59, 61, 25, 52, 58, 42, 51, 32, 61, 51, 63, 35, 48, 63, 26, 50, 44, 42, 53, 50, 34, 62, 67, 18, 70, 30, 51, 26, 41, 50, 40, 42, 63, 65, 35, 26, 47, 47, 54, 32, 40, 59, 36, 46, 35, 27, 48, 37, 29, 27, 23, 19, 39, 22, 37, 42, 
43, 49, 22, 24, 44, 27, 33, 18, 40, 29, 28, 32, 60, 70, 26, 28, 37, 40, 27, 65, 39, 23, 28, 31, 22, 53, 37, 39, 31, 59, 54, 61, 61, 51, 66, 35, 48, 46, 35, 52, 59, 36, 61, 60, 45, 37, 50, 73, 24, 48, 38, 51, 51, 48, 37, 43, 71, 44, 56, 46, 53, 70, 52, 53, 73, 37, 35, 78, 55, 28, 53, 68, 32, 48, 37, 30, 71, 45, 53, 68, 52, 62, 62, 31, 52, 56, 43, 42, 53, 55, 44, 42, 50, 59, 46, 43, 54, 55, 45, 50, 60, 40, 58, 52, 62, 37, 46, 60, 45, 43, 33, 37, 45, 52, 46, 42, 67, 39, 44, 56, 53, 69, 45, 47, 52, 29, 
34, 41, 56, 47, 39, 55, 44, 64, 52, 37, 67, 42, 51, 49, 33, 67, 41, 69, 42, 59, 44, 66, 38, 49, 36, 55, 46, 49, 43, 45, 55, 64, 41, 40, 62, 59, 69, 52, 41, 42, 44, 48, 40, 37, 65, 45, 54, 55, 67, 50, 55, 49, 49, 34, 45, 45, 58, 63, 42, 41, 67, 49, 59, 21, 69, 47, 47, 42, 60, 34, 40, 60, 25, 47, 47, 29, 42, 62, 45, 57, 47, 65, 23, 65, 59, 35, 55, 55, 65, 33, 66, 30, 45, 58, 50, 56, 61, 35, 35, 49, 42, 44, 53, 66, 38, 44, 70, 66, 45, 25, 55, 48, 63, 66, 64, 28, 63, 67, 38, 35, 67, 54, 61, 33, 42, 76, 
42, 59, 40, 61, 32, 61, 33, 42, 61, 51, 68, 42, 26, 70, 41, 53, 60, 60, 46, 42, 45, 71, 61, 48, 38, 35, 67, 64, 50, 19, 47, 43, 57, 54, 27, 41, 35, 28, 38, 36, 69, 38, 58, 40, 48, 36, 56, 43, 41, 28, 45, 43, 31, 43, 32, 31, 31, 24, 26, 32, 38, 36, 40, 70, 62, 22, 27, 23, 47, 33, 25, 34, 31, 31, 31, 46, 22, 44, 42, 58, 40, 32, 61, 51, 40, 39, 32, 62, 60, 30, 47, 20, 31, 35, 39, 43, 44, 32, 24, 25, 30, 34, 32, 34, 35, 27, 23, 38, 34, 57, 38, 40, 30","0.369815668202765","0.786866359447005"
"Kraj Vysočina",688,1050,"0.268895348837209","46.9651162790698","61, 57, 45, 51, 55, 49, 56, 38, 41, 56, 43, 53, 51, 52, 64, 26, 34, 44, 45, 45, 45, 41, 55, 60, 41, 37, 47, 33, 57, 25, 52, 65, 56, 61, 49, 62, 62, 55, 60, 45, 47, 64, 33, 73, 41, 61, 41, 59, 47, 27, 35, 34, 64, 43, 41, 62, 52, 50, 47, 62, 52, 51, 48, 65, 55, 57, 63, 45, 54, 50, 44, 59, 59, 42, 52, 57, 52, 55, 55, 47, 66, 50, 26, 44, 47, 51, 60, 42, 29, 47, 41, 72, 63, 36, 56, 52, 41, 53, 46, 36, 45, 27, 34, 32, 42, 56, 71, 58, 54, 51, 58, 46, 52, 47, 43, 52, 48, 67, 66, 51, 65, 50, 59, 61, 59, 
37, 48, 63, 61, 52, 45, 58, 37, 55, 59, 44, 36, 54, 40, 63, 58, 60, 52, 50, 42, 52, 38, 42, 42, 43, 63, 60, 50, 53, 37, 61, 57, 60, 35, 40, 52, 39, 60, 42, 61, 41, 46, 43, 50, 50, 37, 48, 38, 48, 45, 53, 46, 61, 35, 44, 39, 44, 62, 51, 36, 39, 38, 49, 61, 53, 34, 67, 59, 30, 40, 56, 54, 64, 56, 45, 54, 37, 48, 41, 48, 20, 52, 48, 52, 40, 42, 54, 54, 33, 66, 56, 43, 44, 51, 59, 55, 37, 52, 45, 47, 36, 52, 52, 34, 64, 52, 59, 61, 60, 51, 41, 52, 45, 38, 53, 27, 46, 51, 68, 49, 41, 53, 42, 54, 51, 47, 
40, 33, 52, 51, 56, 45, 58, 53, 42, 44, 51, 69, 33, 42, 51, 58, 62, 27, 45, 66, 50, 61, 45, 45, 45, 32, 39, 59, 54, 56, 54, 59, 42, 47, 51, 42, 39, 46, 47, 55, 60, 48, 54, 64, 54, 42, 63, 49, 25, 41, 54, 42, 45, 37, 68, 44, 60, 59, 44, 46, 47, 40, 56, 57, 45, 38, 62, 67, 63, 37, 51, 54, 38, 21, 25, 66, 62, 52, 61, 49, 32, 63, 49, 72, 40, 61, 63, 65, 38, 53, 68, 64, 37, 63, 52, 35, 57, 34, 46, 43, 56, 69, 58, 33, 53, 63, 57, 55, 58, 30, 36, 57, 47, 43, 61, 35, 46, 60, 34, 33, 57, 44, 64, 47, 36, 35, 
62, 45, 26, 54, 60, 38, 40, 39, 34, 35, 40, 39, 51, 34, 34, 65, 57, 37, 30, 32, 62, 44, 37, 22, 22, 46, 46, 59, 43, 46, 38, 61, 30, 28, 47, 48, 35, 70, 24, 75, 40, 66, 33, 63, 36, 50, 24, 27, 23, 18, 43, 34, 27, 23, 67, 46, 60, 55, 53, 25, 66, 45, 64, 39, 40, 54, 20, 45, 59, 47, 64, 26, 58, 34, 39, 46, 33, 57, 41, 48, 31, 46, 28, 42, 42, 67, 27, 34, 27, 34, 34, 31, 40, 27, 57, 28, 32, 54, 27, 50, 32, 29, 70, 22, 32, 57, 23, 30, 26, 33, 34, 35, 63, 41, 29, 61, 27, 63, 21, 21, 57, 48, 42, 53, 36, 55, 
21, 53, 64, 37, 44, 43, 61, 37, 55, 37, 53, 46, 56, 43, 49, 30, 51, 58, 51, 48, 37, 45, 26, 53, 43, 70, 45, 46, 37, 43, 51, 33, 53, 27, 46, 59, 31, 56, 37, 35, 55, 58, 47, 53, 55, 32, 46, 51, 37, 41, 35, 37, 25, 35, 60, 31, 47, 68, 37, 57, 39, 53, 33, 40, 66, 27, 51, 54, 57, 35, 58, 53, 63, 53, 39, 26, 48, 62, 46, 49, 52, 32, 48, 26, 41, 46, 23, 45, 32, 47, 35, 45, 69, 49, 61, 44, 47, 36, 53, 51, 70, 38, 44, 35, 65, 60, 50, 28, 39, 23, 57, 44, 29, 58, 60, 30, 68, 69, 62, 66, 48, 40, 58, 48, 55, 67, 
61, 27, 50, 31, 41, 30, 41, 62, 58, 47, 67, 62, 47, 33, 47, 31, 31, 38, 26, 21, 21, 55, 58, 49, 44, 42, 41, 41, 46, 47, 50, 61, 57, 33, 51, 49, 21, 25, 52, 49, 44, 69, 31, 34, 28, 69, 23, 24, 23, 63, 56, 73, 53, 54, 65, 32, 23, 23, 20","0.463662790697674","0.661337209302326"
"Královéhradecký kraj",711,850,"0.30379746835443","47.9957805907173","57, 59, 32, 49, 44, 36, 53, 39, 56, 56, 57, 56, 60, 57, 60, 67, 42, 57, 40, 43, 48, 41, 52, 22, 60, 57, 38, 40, 38, 72, 69, 33, 70, 37, 35, 46, 48, 27, 36, 59, 61, 58, 28, 62, 59, 58, 30, 38, 40, 46, 53, 27, 35, 46, 58, 46, 47, 50, 63, 40, 48, 27, 66, 55, 32, 30, 44, 62, 36, 61, 41, 49, 45, 75, 63, 51, 56, 64, 44, 75, 47, 31, 59, 67, 52, 61, 66, 73, 43, 63, 57, 50, 28, 50, 35, 30, 60, 24, 38, 18, 69, 50, 46, 23, 37, 60, 61, 57, 49, 41, 46, 63, 58, 54, 45, 47, 69, 51, 28, 56, 45, 51, 41, 55, 57, 
66, 49, 39, 53, 64, 42, 53, 42, 40, 39, 36, 39, 35, 52, 70, 49, 65, 47, 32, 53, 24, 47, 43, 42, 52, 71, 39, 61, 32, 45, 58, 46, 47, 48, 48, 53, 42, 56, 34, 54, 57, 51, 39, 34, 53, 52, 50, 57, 58, 51, 36, 50, 32, 59, 37, 49, 37, 58, 38, 64, 32, 53, 53, 49, 27, 47, 54, 68, 67, 48, 56, 63, 68, 56, 48, 38, 74, 74, 39, 68, 50, 59, 50, 52, 41, 39, 59, 42, 41, 66, 58, 58, 50, 54, 43, 35, 39, 43, 38, 48, 57, 40, 57, 46, 44, 43, 57, 50, 45, 46, 67, 55, 64, 55, 40, 51, 25, 45, 39, 38, 54, 40, 51, 42, 57, 40, 
30, 70, 24, 60, 39, 56, 60, 59, 50, 61, 56, 53, 48, 38, 39, 53, 37, 45, 48, 71, 47, 35, 40, 60, 58, 37, 57, 56, 51, 51, 57, 50, 72, 69, 53, 44, 58, 54, 50, 57, 33, 45, 71, 37, 63, 57, 26, 68, 59, 21, 47, 58, 56, 66, 60, 42, 58, 47, 64, 49, 45, 27, 42, 44, 64, 64, 63, 64, 63, 28, 30, 49, 55, 32, 58, 62, 47, 42, 45, 61, 54, 68, 31, 33, 39, 68, 39, 63, 40, 42, 41, 61, 52, 63, 57, 39, 57, 34, 65, 59, 66, 36, 28, 52, 27, 29, 54, 63, 51, 53, 27, 52, 48, 42, 23, 31, 23, 28, 21, 54, 28, 27, 30, 53, 28, 24, 
22, 19, 42, 52, 42, 41, 19, 27, 27, 21, 75, 70, 21, 43, 46, 20, 75, 48, 64, 49, 51, 44, 40, 56, 43, 65, 53, 18, 58, 40, 35, 44, 52, 40, 47, 65, 52, 50, 25, 41, 56, 58, 36, 30, 26, 41, 36, 40, 50, 71, 41, 53, 46, 37, 41, 71, 64, 60, 46, 60, 72, 71, 50, 45, 55, 45, 68, 57, 55, 71, 38, 57, 40, 53, 53, 46, 50, 38, 53, 63, 64, 48, 47, 57, 53, 51, 50, 58, 54, 47, 49, 58, 36, 40, 46, 57, 41, 64, 49, 56, 55, 39, 65, 51, 59, 43, 49, 41, 48, 41, 50, 53, 37, 73, 61, 43, 52, 40, 56, 32, 70, 34, 38, 52, 52, 24, 
56, 59, 53, 40, 30, 35, 47, 31, 70, 49, 41, 54, 30, 33, 51, 31, 40, 36, 58, 31, 34, 55, 28, 62, 24, 43, 33, 27, 24, 51, 26, 57, 35, 33, 38, 28, 42, 63, 57, 65, 54, 34, 37, 46, 49, 54, 42, 41, 55, 42, 37, 27, 33, 50, 44, 57, 34, 33, 37, 40, 51, 43, 68, 47, 55, 37, 51, 33, 46, 30, 42, 37, 29, 30, 30, 20, 22, 18, 41, 42, 39, 22, 50, 38, 58, 47, 68, 57, 63, 48, 52, 60, 60, 47, 56, 53, 62, 57, 57, 44, 28, 71, 29, 44, 61, 52, 41, 47, 38, 53, 54, 55, 66, 58, 51, 67, 24, 42, 71, 50, 59, 42, 46, 51, 42, 47, 
37, 49, 34, 42, 63, 45, 47, 65, 52, 63, 63, 51, 56, 61, 62, 41, 42, 60, 57, 55, 58, 38, 51, 67, 50, 54, 58, 60, 59, 33, 58, 48, 55, 42, 46, 44, 33, 44, 24, 51, 73, 32, 47, 76, 58, 44, 59, 60, 53, 61, 62, 60, 31, 31, 83, 60, 46, 66, 52, 25, 47, 37, 42, 60, 47, 24, 67, 28, 48, 51, 27, 49, 30, 64, 56, 56, 33, 23, 29, 38, 47, 52","0.465541490857947","0.689170182841069"
"Liberecký kraj",706,950,"0.3328611898017","47.228045325779","63, 38, 41, 62, 70, 46, 49, 48, 46, 24, 64, 48, 30, 61, 72, 30, 47, 41, 50, 54, 46, 55, 40, 44, 56, 39, 53, 57, 53, 40, 54, 52, 52, 36, 50, 51, 24, 51, 36, 58, 52, 54, 41, 31, 46, 55, 40, 44, 67, 23, 49, 59, 48, 73, 63, 61, 50, 44, 29, 63, 58, 36, 37, 68, 59, 34, 45, 58, 48, 64, 37, 58, 43, 60, 30, 35, 52, 69, 33, 46, 42, 59, 35, 58, 69, 65, 54, 50, 60, 34, 39, 57, 52, 67, 73, 61, 68, 65, 71, 25, 60, 24, 55, 41, 30, 37, 51, 64, 42, 60, 39, 43, 52, 40, 51, 28, 49, 51, 66, 21, 52, 52, 29, 37, 45, 
29, 37, 51, 45, 36, 49, 47, 50, 52, 49, 59, 41, 62, 47, 61, 56, 63, 65, 68, 26, 66, 45, 67, 50, 51, 29, 65, 60, 45, 43, 21, 59, 40, 61, 55, 47, 56, 44, 29, 42, 60, 25, 35, 45, 33, 51, 67, 46, 59, 59, 63, 24, 45, 47, 40, 51, 39, 47, 50, 34, 54, 53, 42, 36, 64, 51, 49, 39, 50, 30, 47, 46, 60, 57, 65, 30, 45, 50, 37, 54, 45, 54, 69, 47, 48, 50, 34, 61, 47, 52, 33, 58, 30, 60, 54, 38, 55, 60, 66, 68, 55, 62, 43, 46, 59, 42, 45, 60, 42, 23, 60, 42, 27, 33, 57, 63, 51, 55, 52, 41, 53, 20, 45, 57, 52, 59, 
39, 39, 40, 31, 50, 40, 50, 43, 62, 39, 41, 62, 72, 46, 35, 36, 31, 49, 48, 68, 53, 58, 40, 41, 61, 40, 26, 49, 59, 55, 48, 32, 61, 64, 42, 65, 21, 55, 68, 69, 65, 59, 58, 69, 64, 75, 64, 66, 37, 62, 77, 64, 22, 24, 46, 70, 56, 69, 63, 30, 62, 66, 72, 41, 45, 65, 70, 61, 44, 68, 61, 53, 58, 32, 39, 67, 51, 60, 62, 58, 38, 36, 29, 27, 30, 49, 67, 44, 20, 28, 36, 66, 32, 62, 42, 51, 29, 52, 49, 58, 67, 59, 62, 20, 57, 63, 53, 37, 55, 53, 53, 31, 62, 50, 32, 54, 55, 32, 51, 45, 57, 67, 42, 50, 27, 63, 
32, 57, 50, 38, 25, 30, 40, 63, 22, 64, 28, 86, 65, 50, 61, 61, 75, 39, 64, 68, 63, 48, 63, 33, 29, 55, 58, 25, 32, 42, 35, 27, 40, 31, 44, 66, 53, 49, 43, 48, 46, 35, 27, 70, 51, 25, 36, 42, 19, 38, 35, 54, 25, 25, 47, 39, 47, 27, 59, 41, 36, 56, 30, 30, 40, 39, 18, 35, 26, 51, 46, 36, 47, 39, 58, 41, 34, 39, 29, 50, 44, 43, 64, 38, 32, 30, 39, 34, 38, 50, 35, 58, 38, 45, 35, 58, 45, 53, 66, 49, 45, 40, 45, 50, 44, 62, 50, 46, 35, 62, 55, 36, 36, 71, 58, 37, 60, 50, 58, 64, 63, 44, 61, 54, 66, 58, 
38, 58, 50, 42, 53, 39, 60, 42, 34, 50, 45, 23, 26, 47, 39, 55, 32, 55, 43, 45, 28, 46, 38, 61, 41, 61, 45, 53, 40, 50, 29, 72, 56, 40, 42, 48, 31, 42, 46, 46, 48, 31, 21, 47, 26, 22, 26, 28, 19, 22, 51, 51, 50, 35, 41, 61, 53, 61, 58, 43, 41, 61, 53, 66, 72, 64, 75, 54, 53, 61, 39, 55, 28, 70, 46, 60, 59, 25, 47, 56, 40, 65, 53, 45, 48, 42, 51, 65, 58, 66, 59, 41, 51, 57, 23, 35, 44, 59, 63, 28, 37, 55, 37, 36, 62, 34, 30, 34, 52, 32, 40, 33, 31, 27, 36, 54, 37, 30, 27, 31, 26, 26, 25, 37, 31, 33, 
53, 54, 53, 33, 39, 20, 44, 62, 43, 38, 50, 41, 65, 55, 55, 37, 47, 44, 56, 58, 69, 44, 41, 47, 59, 41, 37, 48, 53, 38, 50, 53, 36, 32, 41, 40, 33, 37, 48, 53, 58, 34, 51, 33, 51, 67, 51, 54, 45, 49, 65, 49, 56, 39, 46, 63, 54, 22, 34, 40, 35, 40, 41, 37, 61, 27, 67, 49, 23, 26, 34, 22, 42, 20, 38, 49, 33","0.39943342776204","0.784702549575071"
"Moravskoslezský kraj",1281,1750,"0.292740046838407","46.4098360655738","56, 33, 50, 48, 47, 53, 40, 31, 53, 35, 37, 58, 46, 60, 42, 41, 27, 46, 60, 63, 49, 52, 42, 44, 56, 38, 52, 56, 62, 39, 65, 44, 65, 42, 60, 25, 38, 54, 27, 51, 72, 63, 55, 22, 51, 37, 24, 52, 43, 40, 53, 49, 46, 69, 54, 38, 60, 29, 25, 43, 40, 58, 55, 56, 37, 43, 66, 29, 45, 50, 33, 56, 54, 32, 61, 68, 38, 49, 44, 26, 30, 71, 60, 59, 72, 64, 44, 41, 45, 38, 45, 58, 43, 44, 40, 40, 56, 44, 62, 53, 45, 37, 26, 36, 50, 61, 60, 29, 42, 41, 35, 47, 38, 53, 62, 56, 65, 35, 57, 53, 38, 41, 37, 38, 64, 
59, 49, 22, 49, 39, 46, 39, 37, 64, 68, 40, 76, 52, 43, 54, 30, 44, 46, 63, 44, 62, 52, 38, 39, 52, 28, 42, 39, 55, 57, 56, 40, 61, 60, 47, 35, 34, 69, 51, 28, 58, 68, 37, 54, 52, 24, 62, 63, 34, 39, 51, 53, 55, 43, 57, 50, 51, 43, 53, 40, 40, 52, 55, 42, 61, 55, 50, 55, 60, 56, 61, 38, 46, 38, 65, 46, 43, 43, 46, 33, 29, 40, 62, 30, 67, 52, 23, 59, 40, 39, 63, 47, 64, 57, 54, 45, 43, 53, 46, 42, 64, 51, 43, 49, 59, 62, 64, 52, 59, 56, 43, 46, 54, 53, 45, 24, 30, 52, 52, 57, 46, 56, 47, 40, 60, 48, 
61, 33, 56, 47, 37, 45, 42, 56, 38, 39, 32, 56, 38, 60, 36, 43, 40, 43, 51, 81, 53, 35, 58, 56, 34, 38, 43, 39, 49, 65, 48, 34, 56, 26, 42, 36, 56, 63, 56, 48, 70, 28, 47, 40, 44, 46, 50, 50, 27, 58, 38, 43, 27, 57, 39, 44, 47, 36, 57, 46, 58, 42, 62, 60, 48, 66, 44, 61, 57, 47, 28, 57, 42, 52, 54, 53, 34, 45, 34, 33, 44, 49, 58, 43, 33, 45, 70, 44, 48, 26, 38, 65, 30, 31, 33, 39, 34, 43, 29, 36, 37, 52, 38, 42, 67, 58, 45, 48, 40, 42, 55, 49, 53, 64, 32, 62, 41, 38, 34, 56, 51, 27, 43, 49, 50, 53, 
51, 48, 45, 55, 42, 30, 34, 58, 47, 30, 47, 51, 50, 56, 36, 48, 27, 31, 26, 51, 31, 36, 20, 34, 40, 37, 63, 43, 25, 46, 44, 26, 61, 27, 45, 31, 49, 42, 52, 18, 36, 49, 54, 52, 43, 32, 53, 59, 32, 45, 43, 68, 51, 63, 38, 54, 56, 59, 62, 51, 41, 48, 37, 39, 40, 53, 58, 39, 46, 52, 32, 44, 42, 25, 42, 39, 31, 41, 55, 29, 41, 63, 54, 22, 50, 40, 68, 34, 41, 53, 46, 45, 40, 34, 37, 49, 56, 60, 63, 59, 32, 54, 55, 66, 44, 54, 35, 52, 70, 56, 64, 40, 50, 59, 51, 45, 63, 35, 35, 54, 46, 39, 20, 47, 63, 21, 
54, 65, 53, 48, 55, 39, 53, 54, 48, 44, 61, 24, 49, 40, 61, 32, 25, 19, 20, 46, 25, 52, 59, 25, 69, 54, 64, 25, 58, 59, 27, 46, 24, 53, 66, 44, 68, 44, 24, 29, 20, 50, 61, 52, 45, 37, 55, 63, 54, 61, 31, 54, 49, 33, 52, 72, 29, 64, 34, 63, 49, 58, 23, 56, 35, 65, 55, 85, 34, 33, 57, 37, 53, 66, 42, 49, 38, 62, 64, 45, 36, 40, 34, 47, 41, 29, 56, 51, 37, 59, 40, 41, 41, 44, 76, 67, 45, 53, 39, 39, 51, 40, 35, 54, 41, 59, 62, 57, 51, 38, 34, 54, 53, 41, 50, 52, 55, 35, 22, 42, 54, 54, 53, 49, 65, 32, 
33, 59, 49, 48, 21, 56, 38, 32, 52, 28, 47, 60, 26, 52, 62, 53, 42, 42, 70, 42, 35, 50, 63, 36, 62, 61, 38, 62, 60, 45, 55, 44, 47, 28, 24, 23, 41, 51, 48, 29, 31, 56, 61, 50, 57, 34, 43, 57, 51, 36, 58, 49, 62, 57, 50, 45, 61, 56, 47, 33, 52, 54, 40, 62, 47, 38, 58, 45, 41, 51, 39, 49, 50, 48, 40, 61, 59, 42, 45, 63, 57, 45, 56, 57, 44, 57, 49, 42, 60, 37, 53, 50, 62, 64, 50, 52, 49, 51, 61, 70, 45, 50, 40, 50, 36, 36, 65, 50, 44, 50, 49, 50, 50, 29, 46, 47, 52, 31, 55, 25, 30, 31, 49, 43, 43, 34, 
50, 38, 56, 43, 55, 69, 28, 37, 62, 38, 41, 53, 51, 44, 44, 33, 57, 35, 46, 35, 36, 33, 41, 56, 45, 42, 36, 35, 37, 35, 62, 39, 50, 42, 42, 22, 72, 45, 70, 43, 25, 37, 44, 27, 36, 27, 24, 21, 31, 62, 44, 69, 58, 34, 32, 50, 52, 61, 36, 56, 36, 41, 29, 61, 71, 31, 37, 56, 67, 62, 40, 48, 49, 68, 40, 61, 38, 39, 64, 48, 58, 28, 46, 46, 32, 35, 53, 64, 27, 59, 45, 62, 38, 38, 43, 37, 42, 38, 62, 63, 26, 37, 48, 64, 30, 27, 34, 44, 39, 34, 37, 64, 63, 42, 40, 38, 26, 41, 56, 44, 63, 28, 49, 37, 46, 26, 
44, 52, 45, 62, 47, 44, 46, 53, 22, 46, 55, 55, 33, 46, 54, 51, 55, 52, 38, 53, 62, 52, 63, 58, 31, 65, 38, 51, 47, 53, 52, 68, 50, 53, 37, 38, 45, 40, 46, 51, 52, 37, 43, 71, 54, 59, 69, 35, 50, 66, 66, 68, 72, 62, 44, 54, 39, 42, 45, 40, 61, 51, 56, 44, 41, 47, 69, 63, 49, 44, 44, 56, 47, 34, 38, 37, 63, 52, 31, 42, 40, 52, 55, 61, 41, 53, 34, 39, 39, 70, 69, 30, 57, 54, 65, 28, 69, 34, 43, 56, 43, 73, 40, 34, 58, 43, 25, 42, 44, 41, 42, 49, 20, 46, 35, 51, 32, 31, 42, 43, 51, 34, 38, 45, 38, 53, 
44, 38, 61, 37, 44, 48, 46, 40, 59, 30, 38, 48, 42, 49, 21, 69, 30, 35, 64, 36, 52, 47, 47, 29, 29, 62, 62, 33, 44, 56, 30, 51, 49, 63, 45, 35, 63, 59, 69, 48, 51, 44, 42, 46, 53, 40, 44, 22, 33, 36, 23, 40, 72, 50, 62, 76, 34, 40, 73, 71, 46, 36, 65, 48, 54, 43, 22, 63, 50, 53, 41, 46, 46, 24, 50, 48, 68, 31, 57, 66, 48, 66, 59, 60, 55, 55, 30, 41, 47, 70, 44, 74, 52, 49, 47, 47, 26, 53, 43, 50, 32, 43, 53, 72, 45, 45, 33, 43, 39, 44, 54, 38, 44, 51, 53, 31, 45, 49, 56, 51, 44, 60, 37, 48, 40, 51, 
56, 43, 62, 53, 42, 58, 62, 32, 33, 56, 59, 39, 34, 47, 39, 35, 34, 50, 53, 55, 56, 40, 42, 41, 50, 42, 39, 44, 51, 54, 64, 48, 58, 62, 60, 51, 39, 46, 49, 46, 37, 49, 66, 25, 24, 40, 68, 73, 25, 41, 41, 44, 44, 43, 69, 26, 59, 49, 55, 35, 48, 29, 39, 44, 53, 29, 66, 53, 27, 56, 52, 45, 44, 30, 35, 37, 46, 50, 62, 52, 43, 45, 38, 68, 48, 51, 82, 31, 38, 58, 39, 31, 44, 42, 44, 29, 27, 37, 49, 37, 45, 32, 60, 32, 18, 33, 31, 27, 30, 55, 32, 50, 30, 36, 30, 38, 27, 32, 48, 29, 30, 28, 22, 48, 36, 30, 
35, 48, 30, 53, 40, 57, 43, 47, 37, 40, 29, 39, 31, 26, 28, 21, 28, 28, 40, 33, 39, 40","0.488680718188915","0.786885245901639"
"Olomoucký kraj",963,1260,"0.275181723779855","47.9968847352025","72, 51, 52, 46, 52, 39, 55, 61, 50, 54, 42, 31, 38, 37, 53, 40, 54, 51, 75, 53, 25, 57, 33, 30, 58, 43, 60, 37, 49, 59, 62, 46, 46, 36, 46, 55, 43, 51, 77, 35, 36, 49, 30, 37, 23, 47, 54, 44, 40, 53, 65, 42, 53, 44, 40, 19, 24, 65, 31, 40, 20, 31, 32, 29, 27, 35, 29, 27, 50, 41, 42, 24, 41, 64, 65, 33, 29, 40, 32, 27, 32, 26, 51, 41, 35, 30, 23, 35, 29, 34, 20, 23, 49, 34, 34, 49, 38, 63, 42, 62, 26, 44, 29, 34, 38, 29, 51, 21, 32, 29, 29, 69, 68, 51, 48, 60, 51, 63, 48, 63, 47, 58, 49, 67, 60, 
52, 52, 49, 48, 50, 30, 55, 40, 46, 60, 41, 34, 49, 51, 67, 70, 50, 66, 38, 31, 59, 63, 59, 38, 54, 79, 40, 53, 59, 42, 35, 52, 27, 48, 55, 40, 64, 57, 43, 43, 55, 52, 46, 53, 64, 37, 45, 66, 56, 40, 47, 39, 47, 56, 44, 48, 72, 38, 39, 36, 51, 60, 60, 53, 55, 64, 29, 44, 27, 42, 60, 63, 44, 51, 53, 31, 34, 64, 23, 44, 69, 40, 23, 47, 68, 64, 44, 51, 45, 65, 34, 27, 66, 65, 66, 27, 70, 58, 44, 44, 49, 57, 39, 27, 31, 70, 46, 46, 81, 49, 52, 64, 44, 51, 52, 35, 62, 54, 65, 63, 41, 48, 57, 39, 41, 71, 
38, 75, 56, 42, 52, 31, 52, 49, 52, 66, 40, 39, 50, 43, 37, 55, 33, 30, 38, 62, 38, 58, 66, 64, 48, 67, 39, 52, 26, 51, 37, 74, 83, 50, 34, 82, 38, 59, 55, 41, 37, 62, 43, 60, 55, 56, 43, 37, 59, 47, 38, 39, 54, 52, 31, 62, 56, 51, 54, 49, 27, 51, 31, 43, 60, 54, 30, 51, 70, 37, 40, 51, 51, 57, 69, 52, 72, 58, 68, 34, 60, 41, 49, 65, 36, 31, 61, 45, 68, 38, 46, 50, 49, 53, 32, 59, 57, 67, 52, 66, 40, 54, 39, 59, 42, 41, 38, 57, 38, 44, 47, 42, 30, 57, 51, 57, 38, 47, 41, 60, 43, 48, 50, 64, 48, 59, 
48, 31, 39, 51, 45, 49, 44, 19, 35, 27, 44, 42, 66, 45, 66, 43, 41, 34, 62, 34, 52, 60, 55, 31, 63, 40, 61, 57, 37, 61, 60, 59, 63, 63, 44, 39, 65, 65, 57, 50, 49, 67, 42, 28, 57, 56, 32, 65, 38, 62, 34, 39, 44, 65, 36, 44, 28, 34, 64, 53, 62, 50, 63, 57, 40, 67, 35, 34, 58, 55, 59, 55, 60, 61, 44, 63, 64, 62, 40, 68, 44, 51, 64, 61, 32, 63, 34, 53, 51, 36, 36, 44, 49, 50, 61, 42, 60, 49, 54, 44, 59, 49, 60, 42, 52, 43, 56, 49, 49, 56, 51, 41, 43, 47, 59, 53, 66, 39, 48, 38, 58, 43, 62, 47, 63, 54, 
56, 30, 31, 65, 52, 55, 49, 57, 51, 47, 53, 61, 56, 37, 47, 43, 63, 68, 51, 64, 54, 33, 28, 49, 48, 48, 60, 46, 50, 54, 48, 55, 42, 46, 27, 48, 43, 88, 55, 61, 45, 69, 25, 32, 55, 51, 45, 58, 50, 47, 37, 51, 38, 18, 45, 48, 48, 48, 57, 56, 46, 49, 30, 41, 57, 35, 43, 19, 39, 43, 37, 38, 52, 49, 53, 68, 26, 33, 37, 49, 40, 37, 23, 37, 32, 71, 49, 37, 58, 41, 48, 36, 25, 51, 54, 27, 38, 47, 28, 34, 60, 28, 35, 63, 39, 38, 47, 40, 41, 57, 21, 37, 37, 51, 30, 28, 23, 34, 28, 45, 73, 41, 27, 52, 49, 59, 
37, 34, 48, 62, 44, 58, 36, 47, 41, 61, 44, 30, 32, 66, 57, 52, 38, 43, 32, 47, 42, 36, 52, 37, 43, 61, 70, 65, 60, 49, 39, 40, 34, 50, 59, 37, 39, 49, 43, 45, 27, 38, 52, 44, 28, 47, 42, 30, 51, 52, 44, 27, 61, 57, 39, 58, 35, 49, 20, 60, 38, 65, 59, 42, 49, 46, 73, 69, 53, 73, 78, 70, 55, 56, 19, 45, 67, 24, 48, 57, 27, 54, 31, 32, 47, 49, 50, 51, 35, 54, 54, 46, 55, 47, 54, 55, 46, 43, 52, 65, 27, 53, 55, 51, 24, 63, 43, 41, 47, 45, 55, 43, 45, 44, 48, 53, 38, 31, 40, 42, 62, 43, 35, 37, 57, 62, 
54, 38, 52, 44, 50, 40, 34, 47, 58, 39, 56, 41, 34, 44, 43, 36, 57, 48, 45, 38, 43, 56, 46, 52, 38, 48, 56, 62, 68, 38, 64, 45, 34, 56, 26, 66, 48, 44, 57, 49, 42, 51, 52, 68, 54, 38, 35, 72, 33, 39, 33, 49, 36, 63, 63, 39, 52, 23, 42, 58, 33, 43, 33, 57, 51, 60, 44, 85, 68, 23, 66, 65, 41, 47, 72, 56, 49, 80, 59, 69, 65, 34, 53, 41, 69, 40, 25, 62, 83, 73, 68, 67, 47, 65, 53, 42, 59, 64, 45, 54, 53, 52, 34, 70, 41, 35, 72, 30, 53, 39, 30, 68, 49, 47, 41, 47, 31, 50, 42, 32, 26, 33, 42, 64, 27, 75, 
46, 64, 61, 42, 48, 58, 54, 41, 51, 60, 53, 28, 31, 57, 21, 45, 68, 43, 34, 43, 43, 65, 48, 66, 24, 53, 64, 64, 58, 64, 51, 47, 31, 37, 39, 34, 72, 44, 54, 75, 49, 60, 55, 44, 42, 47, 41, 26, 49, 62, 77, 27, 71, 68, 62, 61, 58, 68, 66, 43, 62, 24, 58, 62, 44, 53, 70, 27, 44, 53, 42, 33, 54, 22, 35, 28, 64, 70, 59, 74, 54, 52","0.492211838006231","0.71858774662513"
"Pardubický kraj",726,1100,"0.272727272727273","46.7190082644628","69, 33, 54, 56, 50, 46, 59, 57, 42, 51, 50, 50, 46, 38, 51, 36, 52, 59, 34, 33, 41, 40, 40, 46, 33, 36, 50, 66, 43, 59, 32, 59, 35, 51, 78, 45, 39, 47, 45, 41, 37, 52, 66, 55, 55, 48, 64, 71, 41, 46, 59, 53, 24, 34, 34, 48, 57, 59, 44, 35, 63, 57, 47, 57, 60, 51, 40, 47, 36, 57, 43, 39, 55, 30, 64, 39, 48, 52, 46, 51, 42, 53, 36, 61, 73, 56, 49, 59, 60, 66, 42, 34, 37, 40, 63, 50, 60, 53, 72, 30, 31, 40, 32, 30, 24, 38, 30, 55, 31, 25, 28, 44, 53, 33, 27, 44, 47, 24, 31, 40, 31, 31, 41, 58, 61, 
30, 36, 30, 61, 40, 33, 39, 47, 25, 29, 48, 25, 37, 31, 57, 19, 53, 35, 27, 27, 31, 50, 40, 34, 30, 50, 59, 54, 32, 21, 23, 41, 49, 64, 48, 39, 55, 49, 60, 53, 44, 36, 46, 46, 38, 43, 64, 67, 59, 49, 45, 29, 48, 39, 70, 42, 59, 63, 41, 47, 46, 41, 29, 63, 63, 41, 53, 50, 64, 27, 47, 35, 41, 50, 27, 53, 65, 39, 40, 35, 62, 54, 44, 59, 53, 55, 39, 62, 37, 63, 64, 53, 63, 30, 46, 40, 53, 33, 38, 37, 32, 30, 35, 55, 25, 60, 44, 65, 47, 56, 55, 37, 46, 74, 44, 25, 65, 27, 50, 51, 54, 47, 29, 36, 30, 57, 
58, 57, 56, 53, 46, 51, 65, 42, 37, 44, 52, 53, 42, 54, 52, 56, 41, 46, 45, 59, 60, 55, 52, 46, 52, 52, 51, 67, 45, 46, 42, 58, 44, 44, 44, 44, 69, 54, 42, 51, 43, 57, 44, 37, 37, 68, 35, 45, 41, 60, 53, 64, 60, 57, 27, 63, 65, 39, 42, 63, 60, 62, 49, 62, 32, 38, 60, 66, 63, 44, 47, 41, 42, 60, 43, 47, 37, 31, 59, 46, 49, 54, 38, 51, 36, 45, 32, 66, 66, 49, 30, 63, 65, 64, 20, 55, 65, 61, 54, 38, 45, 62, 47, 43, 56, 42, 63, 42, 45, 45, 42, 59, 44, 31, 30, 52, 36, 55, 30, 28, 71, 37, 24, 23, 22, 22, 
31, 27, 39, 50, 49, 44, 75, 33, 72, 36, 20, 37, 70, 82, 43, 84, 40, 34, 65, 42, 70, 64, 38, 67, 60, 50, 66, 44, 41, 71, 51, 50, 32, 42, 28, 42, 35, 39, 72, 60, 58, 48, 40, 55, 46, 46, 35, 26, 60, 37, 66, 42, 37, 47, 75, 65, 50, 55, 37, 41, 24, 41, 38, 24, 61, 30, 31, 19, 59, 53, 38, 20, 35, 65, 40, 60, 49, 27, 57, 45, 48, 65, 44, 37, 58, 50, 44, 54, 58, 45, 31, 53, 59, 54, 39, 70, 38, 32, 37, 41, 54, 41, 52, 53, 51, 34, 42, 47, 54, 28, 63, 34, 55, 48, 40, 50, 64, 43, 48, 36, 35, 41, 41, 45, 43, 57, 
56, 39, 42, 44, 33, 45, 35, 28, 35, 38, 46, 19, 29, 78, 26, 22, 36, 31, 41, 62, 39, 44, 58, 30, 38, 24, 26, 50, 23, 45, 29, 39, 53, 39, 42, 45, 56, 54, 56, 51, 49, 51, 47, 65, 50, 37, 49, 43, 39, 51, 42, 56, 60, 52, 65, 54, 33, 63, 44, 50, 38, 71, 59, 51, 49, 25, 61, 54, 53, 42, 20, 47, 56, 31, 34, 52, 53, 51, 26, 33, 41, 29, 64, 51, 42, 53, 35, 55, 60, 45, 72, 45, 52, 52, 40, 61, 35, 46, 44, 44, 35, 44, 50, 42, 27, 66, 67, 49, 35, 45, 33, 61, 48, 68, 47, 31, 55, 51, 52, 52, 34, 30, 66, 26, 39, 64, 
79, 50, 64, 25, 52, 54, 58, 61, 48, 63, 47, 51, 54, 42, 45, 42, 42, 39, 42, 52, 53, 47, 57, 43, 51, 34, 62, 36, 38, 34, 50, 50, 74, 44, 42, 52, 50, 50, 43, 51, 68, 60, 61, 68, 43, 42, 62, 51, 38, 54, 63, 45, 57, 61, 38, 25, 43, 30, 52, 32, 63, 36, 28, 61, 23, 65, 58, 68, 52, 55, 70, 65, 37, 25, 56, 37, 38, 23, 45, 66, 55, 43, 33, 40, 32, 50, 61, 59, 40, 27, 50, 42, 47, 53, 41, 40, 32","0.439393939393939","0.712121212121212"
"Plzeňský kraj",675,850,"0.260740740740741","45.5140740740741","67, 41, 52, 41, 53, 58, 32, 67, 56, 47, 49, 56, 48, 46, 58, 48, 31, 54, 39, 41, 54, 57, 48, 53, 60, 53, 42, 62, 59, 40, 34, 37, 39, 74, 43, 47, 36, 48, 45, 53, 31, 45, 40, 58, 52, 67, 23, 30, 32, 53, 52, 51, 46, 49, 54, 63, 56, 35, 62, 60, 46, 49, 29, 39, 40, 54, 58, 48, 52, 38, 43, 37, 52, 33, 54, 63, 49, 32, 31, 52, 40, 47, 54, 56, 50, 64, 52, 54, 49, 44, 56, 59, 69, 57, 54, 68, 37, 27, 55, 35, 33, 55, 57, 46, 38, 46, 30, 53, 43, 54, 58, 52, 59, 41, 38, 20, 26, 22, 37, 37, 34, 61, 59, 33, 49, 
62, 61, 41, 63, 52, 58, 54, 57, 71, 68, 55, 50, 57, 43, 42, 68, 49, 55, 52, 41, 45, 43, 40, 66, 49, 37, 67, 38, 60, 46, 35, 38, 67, 74, 54, 57, 29, 43, 66, 67, 52, 25, 38, 38, 59, 30, 63, 57, 53, 35, 61, 51, 50, 50, 59, 63, 39, 49, 56, 41, 44, 52, 37, 41, 44, 37, 37, 43, 42, 61, 47, 35, 44, 56, 36, 45, 74, 40, 67, 25, 31, 34, 40, 38, 23, 37, 59, 53, 47, 39, 50, 64, 44, 74, 23, 41, 47, 24, 46, 45, 39, 37, 46, 64, 45, 36, 37, 59, 45, 40, 58, 40, 62, 65, 63, 61, 51, 63, 50, 61, 46, 30, 64, 31, 44, 26, 
52, 31, 59, 49, 53, 63, 68, 39, 52, 52, 39, 66, 54, 53, 38, 59, 55, 52, 59, 54, 33, 42, 39, 25, 60, 50, 50, 42, 59, 43, 57, 21, 64, 62, 41, 39, 47, 68, 43, 59, 44, 42, 39, 52, 28, 64, 34, 42, 36, 37, 44, 42, 35, 28, 32, 42, 51, 35, 42, 45, 49, 68, 47, 49, 29, 67, 42, 36, 54, 44, 36, 26, 30, 29, 49, 29, 67, 69, 41, 35, 45, 27, 39, 51, 48, 47, 31, 37, 32, 33, 55, 55, 51, 45, 45, 45, 56, 50, 44, 34, 50, 45, 47, 24, 57, 52, 51, 37, 40, 43, 68, 50, 61, 41, 60, 46, 29, 50, 47, 67, 52, 31, 37, 49, 48, 50, 
41, 62, 48, 24, 53, 71, 50, 63, 50, 63, 64, 58, 57, 59, 41, 47, 47, 68, 28, 25, 60, 26, 50, 48, 61, 40, 42, 37, 62, 56, 45, 50, 49, 40, 43, 33, 38, 58, 62, 39, 40, 55, 34, 48, 61, 27, 47, 55, 41, 50, 66, 39, 30, 57, 39, 43, 38, 52, 59, 56, 42, 48, 61, 43, 39, 54, 32, 43, 50, 34, 50, 67, 26, 37, 62, 38, 58, 37, 32, 57, 56, 47, 60, 62, 52, 47, 34, 40, 53, 51, 34, 39, 45, 37, 42, 61, 53, 56, 61, 22, 69, 50, 50, 47, 54, 62, 50, 60, 50, 54, 46, 58, 31, 59, 44, 42, 58, 46, 48, 38, 49, 25, 49, 47, 40, 75, 
40, 55, 44, 31, 49, 44, 40, 27, 40, 36, 51, 39, 43, 38, 58, 46, 44, 51, 37, 30, 41, 22, 48, 38, 43, 46, 37, 35, 48, 66, 23, 24, 46, 62, 47, 34, 69, 45, 35, 35, 35, 23, 26, 35, 27, 47, 34, 43, 38, 29, 39, 73, 48, 68, 32, 40, 53, 57, 45, 75, 60, 38, 39, 49, 32, 66, 21, 27, 26, 55, 24, 32, 43, 55, 44, 65, 30, 55, 37, 36, 66, 66, 31, 58, 47, 56, 36, 34, 53, 33, 26, 59, 28, 58, 26, 40, 33, 25, 30, 41, 59, 49, 52, 42, 41, 55, 40, 44, 30, 26, 43, 22, 34, 26, 26, 32, 35, 42, 27, 26, 42, 26, 26, 30, 20, 29, 
24, 38, 43, 34, 30, 22, 60, 34, 23, 40, 25, 39, 29, 51, 32, 22, 25, 56, 40, 52, 35, 60, 39, 27, 31, 34, 38, 34, 33, 30, 38, 28, 28, 27, 31, 65, 27, 28, 29, 27, 55, 46, 32, 36, 44, 30","0.425185185185185","0.740740740740741"
"Středočeský kraj",1012,1400,"0.322134387351779","46.4762845849802","45, 40, 41, 35, 53, 69, 51, 36, 58, 51, 62, 44, 50, 44, 49, 40, 44, 41, 35, 44, 47, 34, 65, 57, 63, 30, 41, 46, 43, 43, 34, 34, 57, 35, 60, 25, 38, 39, 40, 56, 53, 42, 34, 49, 26, 57, 23, 45, 49, 59, 46, 35, 61, 39, 64, 68, 31, 31, 22, 43, 63, 33, 37, 42, 52, 33, 31, 59, 64, 38, 67, 41, 72, 49, 61, 51, 39, 64, 54, 47, 58, 55, 48, 62, 58, 38, 60, 43, 66, 54, 38, 49, 54, 57, 61, 48, 59, 55, 39, 46, 42, 57, 29, 70, 50, 65, 49, 53, 58, 24, 48, 59, 37, 32, 39, 31, 67, 41, 51, 51, 37, 30, 47, 51, 63, 
51, 34, 46, 65, 64, 44, 45, 42, 28, 28, 57, 52, 43, 53, 39, 58, 35, 58, 54, 46, 47, 34, 61, 32, 43, 73, 31, 26, 37, 40, 51, 37, 64, 46, 60, 64, 24, 43, 66, 45, 31, 48, 49, 43, 46, 66, 26, 57, 42, 38, 39, 45, 18, 41, 36, 49, 57, 33, 41, 18, 42, 46, 57, 43, 45, 49, 56, 36, 57, 47, 52, 58, 45, 51, 46, 51, 64, 38, 66, 51, 40, 61, 49, 66, 52, 23, 47, 42, 57, 59, 63, 49, 33, 43, 56, 58, 49, 40, 31, 49, 41, 53, 49, 43, 34, 27, 22, 59, 60, 31, 31, 37, 39, 41, 49, 43, 49, 46, 63, 44, 31, 66, 34, 47, 27, 68, 
53, 56, 42, 41, 49, 33, 35, 48, 51, 42, 36, 28, 62, 49, 56, 61, 50, 58, 62, 60, 55, 38, 38, 49, 47, 47, 62, 63, 53, 45, 44, 27, 48, 46, 55, 44, 25, 35, 35, 30, 58, 52, 44, 40, 46, 51, 35, 46, 52, 36, 42, 28, 57, 58, 41, 75, 37, 63, 67, 51, 42, 45, 42, 46, 42, 48, 27, 28, 47, 45, 39, 31, 69, 49, 38, 55, 53, 41, 52, 59, 67, 55, 61, 60, 56, 41, 57, 55, 52, 47, 54, 48, 55, 53, 47, 54, 35, 44, 50, 44, 40, 44, 43, 59, 50, 40, 45, 58, 61, 40, 63, 43, 40, 45, 54, 50, 45, 47, 33, 68, 47, 47, 34, 56, 52, 44, 
80, 47, 53, 71, 31, 49, 42, 63, 50, 42, 60, 44, 20, 60, 61, 38, 58, 23, 41, 59, 59, 47, 66, 62, 64, 62, 36, 58, 55, 54, 63, 29, 44, 61, 53, 36, 58, 57, 35, 41, 60, 63, 26, 40, 45, 42, 42, 31, 21, 59, 44, 22, 34, 35, 62, 46, 52, 54, 60, 34, 37, 51, 42, 48, 61, 52, 52, 42, 51, 55, 52, 58, 74, 54, 61, 42, 49, 52, 59, 43, 45, 58, 60, 66, 64, 64, 61, 64, 61, 24, 49, 47, 43, 25, 58, 49, 46, 51, 43, 31, 23, 52, 60, 44, 63, 33, 42, 53, 39, 45, 40, 38, 36, 43, 26, 40, 42, 61, 36, 45, 49, 36, 22, 70, 42, 45, 
26, 28, 18, 49, 40, 47, 47, 61, 46, 22, 69, 66, 51, 70, 22, 65, 22, 61, 31, 31, 18, 36, 50, 19, 18, 59, 38, 72, 40, 52, 49, 49, 41, 48, 34, 36, 62, 39, 64, 52, 36, 59, 30, 69, 28, 63, 49, 50, 65, 53, 30, 47, 25, 42, 49, 51, 63, 53, 44, 39, 63, 37, 18, 20, 46, 35, 45, 64, 46, 69, 58, 31, 37, 39, 37, 38, 34, 25, 23, 31, 64, 20, 21, 59, 69, 59, 59, 73, 51, 23, 74, 30, 47, 47, 39, 37, 68, 64, 22, 35, 56, 64, 34, 53, 56, 69, 28, 52, 31, 44, 43, 51, 41, 51, 45, 43, 65, 29, 34, 47, 31, 39, 54, 49, 27, 41, 
48, 40, 38, 33, 33, 26, 55, 59, 40, 32, 57, 47, 47, 43, 40, 64, 27, 29, 40, 26, 32, 31, 52, 47, 34, 50, 52, 51, 37, 61, 36, 49, 51, 35, 27, 80, 42, 52, 50, 29, 24, 27, 31, 53, 55, 73, 37, 62, 52, 29, 51, 55, 44, 42, 51, 54, 55, 44, 64, 34, 53, 54, 42, 64, 42, 70, 34, 53, 40, 38, 67, 42, 60, 50, 24, 61, 51, 37, 58, 51, 40, 34, 55, 53, 53, 48, 64, 38, 66, 49, 54, 58, 42, 57, 54, 57, 58, 57, 44, 37, 47, 58, 42, 58, 49, 52, 42, 43, 63, 51, 57, 43, 71, 54, 48, 40, 51, 48, 48, 60, 35, 35, 30, 68, 23, 45, 
21, 42, 68, 42, 43, 64, 68, 42, 68, 38, 68, 66, 38, 22, 46, 37, 57, 42, 68, 44, 37, 46, 35, 46, 38, 27, 62, 54, 53, 51, 51, 70, 48, 69, 60, 48, 72, 48, 44, 68, 56, 35, 51, 53, 49, 38, 61, 39, 62, 47, 36, 58, 41, 43, 36, 64, 41, 54, 52, 41, 61, 41, 39, 37, 31, 30, 74, 40, 31, 48, 57, 24, 50, 44, 30, 42, 42, 39, 42, 36, 43, 56, 53, 50, 60, 49, 59, 55, 26, 61, 47, 30, 61, 62, 51, 53, 31, 34, 24, 60, 40, 37, 52, 41, 57, 48, 52, 50, 52, 41, 35, 43, 41, 22, 65, 47, 53, 58, 51, 36, 60, 62, 57, 41, 60, 58, 
66, 36, 27, 49, 51, 59, 72, 53, 48, 62, 35, 40, 41, 44, 32, 39, 68, 51, 54, 31, 53, 19, 65, 40, 22, 49, 58, 51, 40, 60, 33, 43, 34, 52, 69, 40, 28, 40, 35, 55, 30, 50, 51, 45, 57, 53, 23, 41, 56, 31, 63, 44, 53, 28, 69, 43, 52, 49, 30, 52, 40, 49, 39, 66, 34, 58, 37, 49, 63, 36, 34, 50, 41, 51, 55, 27, 63, 38, 63, 55, 42, 55, 59, 33, 71, 53, 70, 37, 27, 57, 52, 40, 66, 19, 67, 49, 46, 52, 23, 21, 30, 26, 20, 55, 23, 63, 36, 43, 35, 27, 20, 27, 37, 37, 40, 23, 24, 23, 38, 24, 20, 33, 77, 27, 25, 26, 
29, 30, 29, 27, 20","0.386363636363636","0.797430830039526"
"Ústecký kraj",1218,1380,"0.325944170771757","47.3981937602627","45, 33, 65, 54, 63, 56, 55, 38, 56, 42, 40, 29, 54, 45, 52, 34, 28, 41, 37, 46, 41, 69, 60, 47, 52, 52, 45, 49, 40, 46, 61, 55, 53, 49, 65, 56, 51, 57, 38, 35, 49, 46, 45, 32, 52, 65, 44, 64, 48, 19, 50, 67, 43, 66, 62, 38, 41, 69, 50, 63, 43, 52, 51, 58, 48, 63, 72, 51, 51, 45, 52, 62, 29, 42, 38, 59, 54, 54, 60, 54, 34, 45, 62, 56, 35, 55, 61, 57, 46, 39, 38, 69, 67, 54, 59, 69, 59, 38, 61, 54, 34, 50, 74, 34, 69, 73, 60, 62, 51, 64, 57, 64, 64, 62, 53, 73, 67, 70, 37, 27, 57, 43, 60, 70, 54, 
48, 66, 62, 74, 30, 53, 61, 78, 61, 35, 69, 37, 74, 63, 59, 62, 66, 52, 85, 68, 64, 73, 86, 77, 68, 73, 89, 81, 87, 82, 87, 81, 85, 85, 83, 56, 46, 52, 49, 38, 51, 50, 44, 57, 60, 52, 37, 45, 26, 47, 51, 52, 55, 52, 70, 47, 66, 58, 27, 52, 45, 66, 66, 58, 56, 43, 68, 51, 52, 54, 43, 30, 48, 50, 67, 31, 52, 43, 52, 46, 32, 37, 57, 57, 68, 49, 37, 36, 66, 32, 57, 62, 44, 24, 40, 73, 52, 62, 43, 72, 62, 53, 53, 30, 19, 67, 19, 51, 51, 33, 43, 62, 19, 68, 69, 60, 52, 60, 23, 70, 41, 65, 18, 25, 71, 40, 
48, 34, 72, 46, 20, 46, 54, 29, 46, 58, 47, 37, 64, 49, 63, 29, 47, 54, 66, 57, 68, 49, 42, 71, 62, 34, 57, 60, 52, 54, 28, 50, 55, 63, 43, 72, 67, 45, 60, 31, 37, 64, 32, 68, 41, 59, 43, 43, 64, 51, 41, 62, 68, 39, 28, 49, 21, 49, 78, 39, 35, 50, 37, 31, 39, 75, 39, 35, 67, 39, 55, 57, 40, 35, 45, 43, 48, 39, 67, 45, 42, 26, 30, 43, 27, 57, 56, 69, 35, 66, 52, 31, 57, 62, 60, 41, 54, 59, 47, 38, 31, 42, 54, 52, 49, 27, 63, 34, 42, 47, 67, 54, 36, 57, 29, 40, 39, 39, 40, 52, 38, 68, 40, 36, 51, 51, 
37, 44, 42, 58, 31, 56, 40, 53, 47, 48, 59, 44, 32, 61, 58, 47, 43, 35, 32, 46, 43, 36, 51, 30, 37, 40, 40, 52, 40, 52, 40, 33, 56, 45, 63, 38, 55, 47, 44, 49, 46, 58, 57, 48, 32, 28, 54, 53, 55, 45, 46, 44, 44, 63, 33, 30, 29, 46, 30, 52, 56, 32, 37, 49, 46, 48, 37, 43, 47, 41, 45, 60, 37, 43, 43, 44, 66, 63, 41, 60, 52, 58, 48, 51, 41, 36, 57, 62, 40, 45, 64, 44, 68, 20, 31, 32, 50, 39, 34, 41, 47, 37, 29, 50, 38, 49, 39, 37, 37, 45, 29, 36, 45, 33, 53, 53, 47, 31, 42, 71, 22, 47, 20, 46, 61, 53, 
56, 44, 67, 48, 42, 31, 51, 58, 42, 45, 48, 47, 51, 46, 43, 30, 51, 54, 53, 67, 73, 45, 55, 56, 58, 26, 44, 52, 29, 45, 52, 46, 37, 59, 46, 52, 47, 31, 44, 69, 61, 41, 30, 67, 66, 54, 48, 48, 48, 38, 51, 58, 33, 38, 47, 52, 49, 63, 41, 41, 43, 68, 60, 65, 62, 66, 62, 49, 62, 69, 71, 61, 43, 69, 68, 43, 41, 54, 60, 49, 50, 55, 70, 58, 64, 65, 63, 64, 34, 64, 28, 68, 42, 64, 27, 45, 58, 33, 39, 64, 35, 42, 63, 56, 50, 58, 41, 26, 68, 67, 67, 43, 63, 67, 39, 58, 52, 50, 52, 46, 57, 34, 50, 28, 45, 48, 
39, 45, 57, 50, 77, 47, 25, 42, 45, 46, 39, 53, 20, 48, 48, 48, 72, 72, 64, 69, 82, 72, 68, 68, 67, 66, 70, 69, 66, 70, 53, 45, 55, 52, 43, 33, 33, 41, 48, 43, 38, 29, 47, 60, 36, 40, 26, 23, 23, 50, 30, 66, 60, 38, 69, 28, 41, 22, 45, 32, 68, 38, 46, 52, 39, 27, 50, 37, 40, 29, 22, 40, 61, 33, 47, 31, 54, 19, 33, 61, 20, 43, 21, 26, 39, 66, 27, 26, 41, 23, 62, 51, 39, 63, 51, 21, 59, 42, 58, 24, 22, 38, 21, 60, 39, 46, 45, 44, 61, 53, 52, 52, 42, 65, 65, 47, 61, 42, 51, 26, 43, 46, 30, 23, 53, 32, 
64, 49, 31, 47, 56, 37, 50, 24, 28, 39, 47, 46, 42, 50, 41, 58, 56, 29, 48, 48, 35, 50, 44, 54, 57, 54, 51, 35, 47, 43, 59, 63, 44, 68, 60, 51, 47, 40, 51, 60, 80, 40, 25, 32, 51, 45, 27, 58, 41, 64, 53, 45, 56, 30, 68, 26, 33, 48, 31, 25, 48, 28, 26, 43, 37, 29, 50, 41, 22, 41, 44, 25, 45, 68, 38, 18, 47, 29, 56, 25, 41, 37, 55, 32, 49, 41, 43, 38, 46, 39, 73, 55, 48, 58, 57, 47, 45, 31, 51, 50, 59, 54, 54, 46, 60, 32, 40, 67, 56, 46, 33, 60, 20, 27, 37, 51, 61, 42, 29, 27, 49, 32, 72, 35, 31, 39, 
54, 72, 42, 47, 49, 40, 46, 48, 63, 65, 29, 29, 41, 40, 50, 40, 36, 40, 37, 27, 35, 52, 57, 45, 50, 47, 53, 41, 55, 50, 52, 49, 34, 31, 58, 45, 53, 39, 41, 34, 56, 42, 30, 52, 50, 55, 27, 45, 52, 39, 45, 52, 42, 37, 44, 38, 66, 55, 41, 40, 43, 58, 34, 27, 31, 46, 30, 47, 36, 40, 47, 41, 43, 31, 29, 35, 44, 81, 46, 27, 41, 39, 56, 47, 21, 48, 50, 55, 25, 50, 61, 52, 61, 27, 63, 36, 40, 28, 60, 31, 53, 56, 27, 52, 34, 61, 46, 45, 43, 39, 22, 48, 51, 26, 56, 21, 45, 29, 34, 67, 41, 51, 46, 45, 76, 25, 
53, 46, 38, 41, 39, 46, 46, 37, 44, 30, 47, 46, 27, 25, 68, 61, 74, 41, 41, 38, 49, 20, 46, 23, 55, 30, 52, 23, 37, 34, 58, 23, 40, 36, 39, 33, 45, 35, 42, 42, 31, 29, 46, 33, 25, 32, 33, 47, 58, 55, 36, 46, 28, 34, 50, 40, 36, 63, 27, 38, 46, 36, 36, 38, 38, 30, 82, 51, 70, 43, 29, 69, 31, 50, 35, 54, 47, 42, 41, 52, 52, 21, 45, 37, 68, 58, 36, 45, 66, 37, 51, 58, 49, 45, 32, 41, 49, 55, 48, 29, 45, 54, 58, 55, 48, 24, 64, 56, 61, 34, 22, 45, 49, 52, 61, 38, 33, 47, 25, 60, 51, 54, 46, 47, 71, 42, 
64, 35, 39, 52, 47, 49, 27, 37, 60, 43, 44, 38, 50, 39, 44, 55, 50, 47, 64, 53, 51, 48, 57, 40, 43, 56, 52, 21, 38, 21, 68, 49, 39, 42, 30, 43, 54, 50, 41, 37, 53, 65, 40, 67, 52, 46, 28, 37, 60, 26, 28, 37, 59, 51, 26, 26, 35, 57, 53, 44, 59, 56, 39, 41, 42, 38, 41, 74, 36, 61, 42, 26, 37, 47, 40, 56, 20, 25, 51, 34, 36, 36, 40, 48, 30","0.376026272577997","0.814449917898194"
"Zlínský kraj",816,1000,"0.283088235294118","47.5073529411765","58, 46, 64, 58, 57, 60, 53, 49, 34, 55, 54, 45, 59, 35, 53, 45, 31, 38, 51, 55, 59, 63, 60, 43, 50, 53, 44, 51, 21, 52, 62, 50, 47, 57, 64, 61, 50, 57, 42, 30, 45, 62, 34, 47, 49, 54, 42, 61, 49, 58, 58, 61, 30, 41, 55, 63, 54, 57, 50, 52, 59, 43, 72, 62, 52, 49, 56, 60, 51, 57, 49, 57, 47, 52, 55, 50, 51, 52, 53, 40, 44, 73, 37, 44, 63, 45, 53, 52, 36, 48, 49, 42, 47, 62, 53, 67, 35, 57, 56, 56, 44, 48, 49, 54, 47, 40, 42, 41, 49, 53, 53, 51, 48, 48, 28, 49, 44, 34, 70, 50, 28, 59, 49, 62, 36, 
51, 41, 50, 48, 59, 37, 39, 42, 34, 57, 38, 43, 54, 30, 43, 48, 58, 50, 54, 53, 43, 43, 68, 33, 36, 25, 45, 43, 42, 46, 44, 56, 25, 49, 35, 40, 67, 38, 32, 57, 57, 47, 54, 42, 53, 53, 39, 54, 60, 43, 46, 70, 24, 60, 59, 63, 62, 67, 62, 55, 26, 28, 42, 51, 57, 74, 75, 49, 57, 57, 46, 49, 44, 37, 30, 60, 42, 37, 32, 35, 34, 40, 44, 42, 43, 50, 47, 54, 41, 45, 55, 62, 48, 30, 42, 41, 31, 50, 47, 52, 68, 56, 64, 60, 33, 47, 34, 40, 38, 54, 40, 56, 40, 51, 43, 66, 53, 48, 30, 56, 54, 47, 34, 45, 52, 44, 
54, 51, 41, 47, 34, 46, 37, 22, 60, 40, 36, 43, 57, 52, 39, 40, 41, 23, 36, 57, 50, 40, 69, 33, 46, 35, 57, 64, 74, 43, 69, 29, 45, 51, 35, 59, 37, 24, 39, 23, 34, 53, 42, 55, 35, 55, 47, 35, 48, 48, 52, 54, 51, 48, 56, 33, 42, 42, 51, 62, 58, 42, 44, 38, 51, 31, 52, 55, 53, 34, 49, 52, 43, 59, 41, 55, 53, 47, 46, 50, 38, 42, 35, 46, 36, 30, 58, 55, 50, 42, 50, 54, 49, 51, 69, 48, 34, 61, 53, 67, 36, 64, 58, 40, 57, 34, 44, 27, 52, 64, 27, 30, 49, 59, 60, 28, 69, 23, 59, 38, 68, 65, 37, 69, 60, 21, 
44, 66, 72, 53, 54, 65, 21, 42, 52, 65, 65, 70, 48, 59, 53, 62, 24, 34, 22, 51, 39, 54, 65, 60, 27, 27, 26, 23, 21, 55, 57, 19, 43, 60, 62, 45, 65, 32, 38, 61, 49, 56, 23, 83, 42, 42, 41, 67, 26, 29, 69, 51, 33, 69, 32, 58, 32, 51, 28, 35, 53, 38, 62, 60, 39, 42, 68, 71, 38, 66, 63, 35, 62, 50, 66, 78, 64, 61, 58, 67, 59, 51, 60, 47, 63, 58, 61, 40, 19, 63, 55, 54, 62, 50, 33, 36, 62, 57, 51, 51, 61, 28, 27, 60, 40, 64, 32, 57, 50, 56, 68, 61, 33, 29, 52, 41, 42, 54, 67, 69, 61, 39, 35, 20, 60, 35, 
47, 37, 50, 40, 54, 56, 45, 34, 46, 40, 27, 46, 26, 28, 59, 60, 52, 48, 42, 41, 44, 41, 41, 33, 36, 22, 42, 65, 49, 39, 54, 48, 53, 38, 48, 41, 44, 46, 44, 50, 60, 23, 62, 25, 56, 31, 50, 33, 57, 51, 23, 70, 22, 52, 52, 45, 45, 50, 27, 67, 26, 48, 48, 37, 43, 49, 25, 66, 21, 52, 39, 29, 47, 45, 38, 45, 46, 46, 38, 52, 33, 27, 42, 28, 59, 65, 40, 55, 42, 60, 52, 66, 45, 52, 35, 48, 62, 61, 55, 60, 38, 60, 57, 56, 50, 42, 43, 62, 59, 57, 68, 60, 45, 25, 50, 37, 54, 54, 44, 37, 40, 44, 40, 42, 37, 27, 
56, 20, 35, 39, 29, 59, 46, 21, 30, 47, 48, 45, 52, 51, 50, 58, 48, 22, 24, 44, 41, 36, 53, 50, 70, 46, 39, 28, 26, 42, 35, 40, 33, 34, 61, 56, 50, 66, 47, 56, 60, 63, 60, 46, 33, 57, 58, 66, 61, 34, 50, 61, 67, 56, 51, 47, 57, 62, 48, 45, 51, 26, 59, 59, 61, 52, 34, 43, 35, 50, 67, 37, 47, 46, 60, 45, 65, 49, 64, 68, 75, 76, 45, 21, 26, 25, 29, 27, 36, 28, 33, 51, 28, 36, 50, 22, 50, 34, 31, 43, 40, 26, 35, 46, 36, 34, 39, 26, 29, 47, 57, 60, 39, 39, 31, 61, 50, 49, 62, 30, 35, 37, 36, 35, 42, 43, 
28, 53, 27, 32, 51, 30, 73, 36, 73, 71, 80, 76, 37, 63, 28, 60, 57, 40, 40, 53, 52, 45, 52, 50, 39, 63, 53, 39, 34, 66, 45, 44, 57, 28, 56, 55, 69, 69, 51, 70, 50, 56, 41, 72, 43, 47, 70, 35, 31, 22, 69, 49, 53, 42, 38, 56, 42, 60, 53, 19, 42","0.488970588235294","0.745098039215686"
